<!-- Generated by IcoMoon.io -->
<svg version="1.1" xmlns="http://www.w3.org/2000/svg" width="256" height="448" viewBox="0 0 256 448">
<title></title>
<g id="icomoon-ignore">
</g>
<path fill="#ffffff" d="M72 368c0-13.25-10.75-24-24-24s-24 10.75-24 24 10.75 24 24 24 24-10.75 24-24zM72 80c0-13.25-10.75-24-24-24s-24 10.75-24 24 10.75 24 24 24 24-10.75 24-24zM232 112c0-13.25-10.75-24-24-24s-24 10.75-24 24 10.75 24 24 24 24-10.75 24-24zM256 112c0 17.75-9.75 33.25-24 41.5-0.75 90.25-64.75 110.25-107.25 123.75-39.75 12.5-52.75 18.5-52.75 42.75v6.5c14.25 8.25 24 23.75 24 41.5 0 26.5-21.5 48-48 48s-48-21.5-48-48c0-17.75 9.75-33.25 24-41.5v-205c-14.25-8.25-24-23.75-24-41.5 0-26.5 21.5-48 48-48s48 21.5 48 48c0 17.75-9.75 33.25-24 41.5v124.25c12.75-6.25 26.25-10.5 38.5-14.25 46.5-14.75 73-25.75 73.5-78-14.25-8.25-24-23.75-24-41.5 0-26.5 21.5-48 48-48s48 21.5 48 48z"></path>
</svg>
